INDEX VERSION 1.131+C:\Users\SAMEER\Downloads\Navya-full-project-1\Navya-backend\RentAPlace\.metadata\.plugins\org.eclipse.jdt.core
3503964944.index
322089331.index
315823582.index
880441623.index
3604134896.index
3868251085.index
824114898.index
2313197383.index
3371870754.index
2147928525.index
399978630.index
867282818.index
2147460767.index
1865797976.index
2766347202.index
287808916.index
133396104.index
555703371.index
3614772176.index
3347571636.index
3623296860.index
1222641394.index
1781019365.index
3855600861.index
2219854547.index
1474883597.index
3759248208.index
226462012.index
386526332.index
1586281445.index
1336592540.index
1223648809.index
1975675632.index
3290072742.index
879752198.index
3341494864.index
1815956216.index
156571262.index
3442990682.index
1528549638.index
3704238921.index
63483650.index
3872443891.index
3120355382.index
1523391975.index
788475767.index
3252872.index
508305369.index
3803600393.index
3456165656.index
4155541300.index
215984470.index
2874056854.index
1166213150.index
2638787439.index
1535138357.index
101358704.index
2185528919.index
405817014.index
1554973608.index
2741830169.index
2849562668.index
266097506.index
780420247.index
2146736286.index
1354579533.index
1090248140.index
765845680.index
3640300786.index
4175195193.index
427963899.index
4090913680.index
1759736542.index
3045299547.index
1138329763.index
138020409.index
859815884.index
